receiver port details
http :- Connector port 8080 redirect port 8443 
rt :- Connector port 8081 redirect port 8444 8010
brd :- Connector port 8082 redirect port 8445 8010


Senders
sub_1 :- Connector port 8090
sub_2 :- Connector port 8091
sub_3 :- Connector port 8092
sub_4 : Connector port 8093




